module bpf-simulator

go 1.22.2

require (
	github.com/dominikbraun/graph v0.23.0
	github.com/google/gopacket v1.1.19
	github.com/joho/godotenv v1.5.1
	github.com/julienschmidt/httprouter v1.3.0
	github.com/prometheus/client_golang v1.20.5
	go.uber.org/zap v1.27.0
)

require (
	github.com/beorn7/perks v1.0.1 // indirect
	github.com/cespare/xxhash/v2 v2.3.0 // indirect
	github.com/klauspost/compress v1.17.9 // indirect
	github.com/munnerz/goautoneg v0.0.0-20191010083416-a7dc8b61c822 // indirect
	github.com/prometheus/client_model v0.6.1 // indirect
	github.com/prometheus/common v0.55.0 // indirect
	github.com/prometheus/procfs v0.15.1 // indirect
	google.golang.org/protobuf v1.34.2 // indirect
)

require (
	github.com/justinas/alice v1.2.0
	github.com/orcaman/concurrent-map/v2 v2.0.1
	go.uber.org/multierr v1.11.0 // indirect
	golang.org/x/sys v0.22.0 // indirect
)
